Year ; Easter Date ; Julian Easter Date
1951 ; 1951-03-25  ; 1951-04-29
1952 ; 1952-04-13  ; 1952-04-20
1953 ; 1953-04-05  ; 1953-04-05
1954 ; 1954-04-18  ; 1954-04-25
1955 ; 1955-04-10  ; 1955-04-17
1956 ; 1956-04-01  ; 1956-05-06
1957 ; 1957-04-21  ; 1957-04-21
1958 ; 1958-04-06  ; 1958-04-13
1959 ; 1959-03-29  ; 1959-05-03
1960 ; 1960-04-17  ; 1960-04-17
1961 ; 1961-04-02  ; 1961-04-09
1962 ; 1962-04-22  ; 1962-04-29
1963 ; 1963-04-14  ; 1963-04-14
1964 ; 1964-03-29  ; 1964-05-03
1965 ; 1965-04-18  ; 1965-04-25
1966 ; 1966-04-10  ; 1966-04-10
1967 ; 1967-03-26  ; 1967-04-30
1968 ; 1968-04-14  ; 1968-04-21
1969 ; 1969-04-06  ; 1969-04-13
1970 ; 1970-03-29  ; 1970-04-26
1971 ; 1971-04-11  ; 1971-04-18
1972 ; 1972-04-02  ; 1972-04-09
1973 ; 1973-04-22  ; 1973-04-29
1974 ; 1974-04-14  ; 1974-04-14
1975 ; 1975-03-30  ; 1975-05-04
1976 ; 1976-04-18  ; 1976-04-25
1977 ; 1977-04-10  ; 1977-04-10
1978 ; 1978-03-26  ; 1978-04-30
1979 ; 1979-04-15  ; 1979-04-22
1980 ; 1980-04-06  ; 1980-04-06
1981 ; 1981-04-19  ; 1981-04-26
1982 ; 1982-04-11  ; 1982-04-18
1983 ; 1983-04-03  ; 1983-05-08
1984 ; 1984-04-22  ; 1984-04-22
1985 ; 1985-04-07  ; 1985-04-14
1986 ; 1986-03-30  ; 1986-05-04
1987 ; 1987-04-19  ; 1987-04-19
1988 ; 1988-04-03  ; 1988-04-10
1989 ; 1989-03-26  ; 1989-04-30
1990 ; 1990-04-15  ; 1990-04-15
1991 ; 1991-03-31  ; 1991-04-07
1992 ; 1992-04-19  ; 1992-04-26
1993 ; 1993-04-11  ; 1993-04-18
1994 ; 1994-04-03  ; 1994-05-01
1995 ; 1995-04-16  ; 1995-04-23
1996 ; 1996-04-07  ; 1996-04-14
1997 ; 1997-03-30  ; 1997-04-27
1998 ; 1998-04-12  ; 1998-04-19
1999 ; 1999-04-04  ; 1999-04-11
2000 ; 2000-04-23  ; 2000-04-30
2001 ; 2001-04-15  ; 2001-04-15
2002 ; 2002-03-31  ; 2002-05-05
2003 ; 2003-04-20  ; 2003-04-27
2004 ; 2004-04-11  ; 2004-04-11
2005 ; 2005-03-27  ; 2005-05-01
2006 ; 2006-04-16  ; 2006-04-23
2007 ; 2007-04-08  ; 2007-04-08
2008 ; 2008-03-23  ; 2008-04-27
2009 ; 2009-04-12  ; 2009-04-19
2010 ; 2010-04-04  ; 2010-04-04
2011 ; 2011-04-24  ; 2011-04-24
2012 ; 2012-04-08  ; 2012-04-15
2013 ; 2013-03-31  ; 2013-05-05
2014 ; 2014-04-20  ; 2014-04-20
2015 ; 2015-04-05  ; 2015-04-12
2016 ; 2016-03-27  ; 2016-05-01
2017 ; 2017-04-16  ; 2017-04-16
2018 ; 2018-04-01  ; 2018-04-08
2019 ; 2019-04-21  ; 2019-04-28
2020 ; 2020-04-12  ; 2020-04-19
2021 ; 2021-04-04  ; 2021-05-02
2022 ; 2022-04-17  ; 2022-04-24
2023 ; 2023-04-09  ; 2023-04-16
2024 ; 2024-03-31  ; 2024-05-05
2025 ; 2025-04-20  ; 2025-04-20
2026 ; 2026-04-05  ; 2026-04-12
2027 ; 2027-03-28  ; 2027-05-02
2028 ; 2028-04-16  ; 2028-04-16
2029 ; 2029-04-01  ; 2029-04-08
2030 ; 2030-04-21  ; 2030-04-28
2031 ; 2031-04-13  ; 2031-04-13
2032 ; 2032-03-28  ; 2032-05-02
2033 ; 2033-04-17  ; 2033-04-24
2034 ; 2034-04-09  ; 2034-04-09
2035 ; 2035-03-25  ; 2035-04-29
2036 ; 2036-04-13  ; 2036-04-20
2037 ; 2037-04-05  ; 2037-04-05
2038 ; 2038-04-25  ; 2038-04-25
2039 ; 2039-04-10  ; 2039-04-17
2040 ; 2040-04-01  ; 2040-05-06
2041 ; 2041-04-21  ; 2041-04-21
2042 ; 2042-04-06  ; 2042-04-13
2043 ; 2043-03-29  ; 2043-05-03
2044 ; 2044-04-17  ; 2044-04-24
2045 ; 2045-04-09  ; 2045-04-09
2046 ; 2046-03-25  ; 2046-04-29
2047 ; 2047-04-14  ; 2047-04-21
2048 ; 2048-04-05  ; 2048-04-05
2049 ; 2049-04-18  ; 2049-04-25
2050 ; 2050-04-10  ; 2050-04-17